Cómo hacer una tabla de frecuencias en R con tidyverse – Blog de Juan Riera
…
CSV en el Notepad de Windows

Para leer este archivo, utilizaremos la función read_csv2()que se adapta a este formato usado en Europa (utiizamos la función de tidyversey no la función read.csv2()de \(R\) básico)

library(tidyverse)
df <- read_csv2("camembert.csv") 

Vamos a utilizar los pipes de \(R\) para construir nuestra tabla paso a paso. En cada paso, iremos añadiendo instrucciones adicionales para llegar al bloque de código que buscamos.

El primer paso es seleccionar la variable de la que vamos a hacer la tabla, en este caso es \(est\), el \(extracto\ seco\ total\).

 df |>
  select(est)

# A tibble: 211 × 1
     est
   <dbl>
 1  46.7
 2  48.1
 3  46.0
 4  46.2
 5  45.8
 6  46  
 7  44.8
 8  45.8
 9  47.1
10  45.6
# ℹ 201 more rows

A continuación, agrupamos los valores por intervalos. Para ello usamos la función cut_width() de la librería ggplot2, que nos permite cortar los valores en intervalos, definidos por el parámetro width=; en este caso, damos al intervalo una amplitud de \(1\).

df |>
  select(est) |>
  mutate(est_group = cut_width(est, width = 1)) 

# A tibble: 211 × 2
     est est_group  
   <dbl> <fct>      
 1  46.7 (46.5,47.5]
 2  48.1 (47.5,48.5]
 3  46.0 (45.5,46.5]
 4  46.2 (45.5,46.5]
 5  45.8 (45.5,46.5]
 6  46   (45.5,46.5]
 7  44.8 (44.5,45.5]
 8  45.8 (45.5,46.5]
 9  47.1 (46.5,47.5]
10  45.6 (45.5,46.5]
# ℹ 201 more rows

Lo que hemos hecho es designar el intervalo al que pertenecen todos los valores de \(est\), con la amplitud de intervalo que hemos definido mediante el parámetro elegido.

El paso siguiente es agrupar los intervalos, contando el número de veces que aparece cada uno.

df |>
  select(est) |>
  mutate(est_group = cut_width(est, width = 1)) |>
  group_by(est_group)

# A tibble: 211 × 2
# Groups:   est_group [9]
     est est_group  
   <dbl> <fct>      
 1  46.7 (46.5,47.5]
 2  48.1 (47.5,48.5]
 3  46.0 (45.5,46.5]
 4  46.2 (45.5,46.5]
 5  45.8 (45.5,46.5]
 6  46   (45.5,46.5]
 7  44.8 (44.5,45.5]
 8  45.8 (45.5,46.5]
 9  47.1 (46.5,47.5]
10  45.6 (45.5,46.5]
# ℹ 201 more rows
…
